%!PS-Adobe-3.0 EPSF-3.0
%%Creator: (MATLAB, The Mathworks, Inc. Version 9.1.0.441655 \(R2016b\). Operating System: Windows 7)
%%Title: E:/Matlab_Projects/Vyuka/SM/anova.eps
%%CreationDate: 2018-03-19T14:36:37
%%Pages: (atend)
%%BoundingBox: 0 0 424 323
%%LanguageLevel: 3
%%EndComments
%%BeginProlog
%%BeginResource: procset (Apache XML Graphics Std ProcSet) 1.2 0
%%Version: 1.2 0
%%Copyright: (Copyright 2001-2003,2010 The Apache Software Foundation. License terms: http://www.apache.org/licenses/LICENSE-2.0)
/bd{bind def}bind def
/ld{load def}bd
/GR/grestore ld
/M/moveto ld
/LJ/setlinejoin ld
/C/curveto ld
/f/fill ld
/LW/setlinewidth ld
/GC/setgray ld
/t/show ld
/N/newpath ld
/CT/concat ld
/cp/closepath ld
/S/stroke ld
/L/lineto ld
/CC/setcmykcolor ld
/A/ashow ld
/GS/gsave ld
/RC/setrgbcolor ld
/RM/rmoveto ld
/ML/setmiterlimit ld
/re {4 2 roll M
1 index 0 rlineto
0 exch rlineto
neg 0 rlineto
cp } bd
/_ctm matrix def
/_tm matrix def
/BT { _ctm currentmatrix pop matrix _tm copy pop 0 0 moveto } bd
/ET { _ctm setmatrix } bd
/iTm { _ctm setmatrix _tm concat } bd
/Tm { _tm astore pop iTm 0 0 moveto } bd
/ux 0.0 def
/uy 0.0 def
/F {
  /Tp exch def
  /Tf exch def
  Tf findfont Tp scalefont setfont
  /cf Tf def  /cs Tp def
} bd
/ULS {currentpoint /uy exch def /ux exch def} bd
/ULE {
  /Tcx currentpoint pop def
  gsave
  newpath
  cf findfont cs scalefont dup
  /FontMatrix get 0 get /Ts exch def /FontInfo get dup
  /UnderlinePosition get Ts mul /To exch def
  /UnderlineThickness get Ts mul /Tt exch def
  ux uy To add moveto  Tcx uy To add lineto
  Tt setlinewidth stroke
  grestore
} bd
/OLE {
  /Tcx currentpoint pop def
  gsave
  newpath
  cf findfont cs scalefont dup
  /FontMatrix get 0 get /Ts exch def /FontInfo get dup
  /UnderlinePosition get Ts mul /To exch def
  /UnderlineThickness get Ts mul /Tt exch def
  ux uy To add cs add moveto Tcx uy To add cs add lineto
  Tt setlinewidth stroke
  grestore
} bd
/SOE {
  /Tcx currentpoint pop def
  gsave
  newpath
  cf findfont cs scalefont dup
  /FontMatrix get 0 get /Ts exch def /FontInfo get dup
  /UnderlinePosition get Ts mul /To exch def
  /UnderlineThickness get Ts mul /Tt exch def
  ux uy To add cs 10 mul 26 idiv add moveto Tcx uy To add cs 10 mul 26 idiv add lineto
  Tt setlinewidth stroke
  grestore
} bd
/QT {
/Y22 exch store
/X22 exch store
/Y21 exch store
/X21 exch store
currentpoint
/Y21 load 2 mul add 3 div exch
/X21 load 2 mul add 3 div exch
/X21 load 2 mul /X22 load add 3 div
/Y21 load 2 mul /Y22 load add 3 div
/X22 load /Y22 load curveto
} bd
/SSPD {
dup length /d exch dict def
{
/v exch def
/k exch def
currentpagedevice k known {
/cpdv currentpagedevice k get def
v cpdv ne {
/upd false def
/nullv v type /nulltype eq def
/nullcpdv cpdv type /nulltype eq def
nullv nullcpdv or
{
/upd true def
} {
/sametype v type cpdv type eq def
sametype {
v type /arraytype eq {
/vlen v length def
/cpdvlen cpdv length def
vlen cpdvlen eq {
0 1 vlen 1 sub {
/i exch def
/obj v i get def
/cpdobj cpdv i get def
obj cpdobj ne {
/upd true def
exit
} if
} for
} {
/upd true def
} ifelse
} {
v type /dicttype eq {
v {
/dv exch def
/dk exch def
/cpddv cpdv dk get def
dv cpddv ne {
/upd true def
exit
} if
} forall
} {
/upd true def
} ifelse
} ifelse
} if
} ifelse
upd true eq {
d k v put
} if
} if
} if
} forall
d length 0 gt {
d setpagedevice
} if
} bd
/RE { % /NewFontName [NewEncodingArray] /FontName RE -
  findfont dup length dict begin
  {
    1 index /FID ne
    {def} {pop pop} ifelse
  } forall
  /Encoding exch def
  /FontName 1 index def
  currentdict definefont pop
  end
} bind def
%%EndResource
%%BeginResource: procset (Apache XML Graphics EPS ProcSet) 1.0 0
%%Version: 1.0 0
%%Copyright: (Copyright 2002-2003 The Apache Software Foundation. License terms: http://www.apache.org/licenses/LICENSE-2.0)
/BeginEPSF { %def
/b4_Inc_state save def         % Save state for cleanup
/dict_count countdictstack def % Count objects on dict stack
/op_count count 1 sub def      % Count objects on operand stack
userdict begin                 % Push userdict on dict stack
/showpage { } def              % Redefine showpage, { } = null proc
0 setgray 0 setlinecap         % Prepare graphics state
1 setlinewidth 0 setlinejoin
10 setmiterlimit [ ] 0 setdash newpath
/languagelevel where           % If level not equal to 1 then
{pop languagelevel             % set strokeadjust and
1 ne                           % overprint to their defaults.
{false setstrokeadjust false setoverprint
} if
} if
} bd
/EndEPSF { %def
count op_count sub {pop} repeat            % Clean up stacks
countdictstack dict_count sub {end} repeat
b4_Inc_state restore
} bd
%%EndResource
%FOPBeginFontDict
%%IncludeResource: font Courier-Bold
%%IncludeResource: font Helvetica
%%IncludeResource: font Courier-BoldOblique
%%IncludeResource: font Courier-Oblique
%%IncludeResource: font Times-Roman
%%IncludeResource: font Helvetica-BoldOblique
%%IncludeResource: font Helvetica-Bold
%%IncludeResource: font Helvetica-Oblique
%%IncludeResource: font Times-BoldItalic
%%IncludeResource: font Courier
%%IncludeResource: font Times-Italic
%%IncludeResource: font Times-Bold
%%IncludeResource: font Symbol
%%IncludeResource: font ZapfDingbats
%FOPEndFontDict
%%BeginResource: encoding WinAnsiEncoding
/WinAnsiEncoding [
/.notdef /.notdef /.notdef /.notdef /.notdef
/.notdef /.notdef /.notdef /.notdef /.notdef
/.notdef /.notdef /.notdef /.notdef /.notdef
/.notdef /.notdef /.notdef /.notdef /.notdef
/.notdef /.notdef /.notdef /.notdef /.notdef
/.notdef /.notdef /.notdef /.notdef /.notdef
/.notdef /.notdef /space /exclam /quotedbl
/numbersign /dollar /percent /ampersand /quotesingle
/parenleft /parenright /asterisk /plus /comma
/hyphen /period /slash /zero /one
/two /three /four /five /six
/seven /eight /nine /colon /semicolon
/less /equal /greater /question /at
/A /B /C /D /E
/F /G /H /I /J
/K /L /M /N /O
/P /Q /R /S /T
/U /V /W /X /Y
/Z /bracketleft /backslash /bracketright /asciicircum
/underscore /quoteleft /a /b /c
/d /e /f /g /h
/i /j /k /l /m
/n /o /p /q /r
/s /t /u /v /w
/x /y /z /braceleft /bar
/braceright /asciitilde /bullet /Euro /bullet
/quotesinglbase /florin /quotedblbase /ellipsis /dagger
/daggerdbl /circumflex /perthousand /Scaron /guilsinglleft
/OE /bullet /Zcaron /bullet /bullet
/quoteleft /quoteright /quotedblleft /quotedblright /bullet
/endash /emdash /asciitilde /trademark /scaron
/guilsinglright /oe /bullet /zcaron /Ydieresis
/space /exclamdown /cent /sterling /currency
/yen /brokenbar /section /dieresis /copyright
/ordfeminine /guillemotleft /logicalnot /sfthyphen /registered
/macron /degree /plusminus /twosuperior /threesuperior
/acute /mu /paragraph /middot /cedilla
/onesuperior /ordmasculine /guillemotright /onequarter /onehalf
/threequarters /questiondown /Agrave /Aacute /Acircumflex
/Atilde /Adieresis /Aring /AE /Ccedilla
/Egrave /Eacute /Ecircumflex /Edieresis /Igrave
/Iacute /Icircumflex /Idieresis /Eth /Ntilde
/Ograve /Oacute /Ocircumflex /Otilde /Odieresis
/multiply /Oslash /Ugrave /Uacute /Ucircumflex
/Udieresis /Yacute /Thorn /germandbls /agrave
/aacute /acircumflex /atilde /adieresis /aring
/ae /ccedilla /egrave /eacute /ecircumflex
/edieresis /igrave /iacute /icircumflex /idieresis
/eth /ntilde /ograve /oacute /ocircumflex
/otilde /odieresis /divide /oslash /ugrave
/uacute /ucircumflex /udieresis /yacute /thorn
/ydieresis
] def
%%EndResource
%FOPBeginFontReencode
/Courier-Bold findfont
dup length dict begin
  {1 index /FID ne {def} {pop pop} ifelse} forall
  /Encoding WinAnsiEncoding def
  currentdict
end
/Courier-Bold exch definefont pop
/Helvetica findfont
dup length dict begin
  {1 index /FID ne {def} {pop pop} ifelse} forall
  /Encoding WinAnsiEncoding def
  currentdict
end
/Helvetica exch definefont pop
/Courier-BoldOblique findfont
dup length dict begin
  {1 index /FID ne {def} {pop pop} ifelse} forall
  /Encoding WinAnsiEncoding def
  currentdict
end
/Courier-BoldOblique exch definefont pop
/Courier-Oblique findfont
dup length dict begin
  {1 index /FID ne {def} {pop pop} ifelse} forall
  /Encoding WinAnsiEncoding def
  currentdict
end
/Courier-Oblique exch definefont pop
/Times-Roman findfont
dup length dict begin
  {1 index /FID ne {def} {pop pop} ifelse} forall
  /Encoding WinAnsiEncoding def
  currentdict
end
/Times-Roman exch definefont pop
/Helvetica-BoldOblique findfont
dup length dict begin
  {1 index /FID ne {def} {pop pop} ifelse} forall
  /Encoding WinAnsiEncoding def
  currentdict
end
/Helvetica-BoldOblique exch definefont pop
/Helvetica-Bold findfont
dup length dict begin
  {1 index /FID ne {def} {pop pop} ifelse} forall
  /Encoding WinAnsiEncoding def
  currentdict
end
/Helvetica-Bold exch definefont pop
/Helvetica-Oblique findfont
dup length dict begin
  {1 index /FID ne {def} {pop pop} ifelse} forall
  /Encoding WinAnsiEncoding def
  currentdict
end
/Helvetica-Oblique exch definefont pop
/Times-BoldItalic findfont
dup length dict begin
  {1 index /FID ne {def} {pop pop} ifelse} forall
  /Encoding WinAnsiEncoding def
  currentdict
end
/Times-BoldItalic exch definefont pop
/Courier findfont
dup length dict begin
  {1 index /FID ne {def} {pop pop} ifelse} forall
  /Encoding WinAnsiEncoding def
  currentdict
end
/Courier exch definefont pop
/Times-Italic findfont
dup length dict begin
  {1 index /FID ne {def} {pop pop} ifelse} forall
  /Encoding WinAnsiEncoding def
  currentdict
end
/Times-Italic exch definefont pop
/Times-Bold findfont
dup length dict begin
  {1 index /FID ne {def} {pop pop} ifelse} forall
  /Encoding WinAnsiEncoding def
  currentdict
end
/Times-Bold exch definefont pop
%FOPEndFontReencode
%%EndProlog
%%Page: 1 1
%%PageBoundingBox: 0 0 424 323
%%BeginPageSetup
[1 0 0 -1 0 323] CT
%%EndPageSetup
GS
[0.75 0 0 0.75 0 0.5] CT
N
0 0 M
565 0 L
565 430 L
0 430 L
0 0 L
cp
clip
1 GC
N
0 0 565 430 re
f
GR
GS
[0.75 0 0 0.75 0 0.5] CT
1 GC
N
0 0 565 430 re
f
GR
GS
[0.75 0 0 0.75 0 0.5] CT
1 GC
N
119 353 M
542 353 L
542 43 L
119 43 L
cp
f
GR
GS
[0.75 0 0 0.75 0 0.5] CT
0.149 GC
2 setlinecap
1 LJ
0.667 LW
N
119 353 M
542 353 L
S
GR
GS
[0.75 0 0 0.75 0 0.5] CT
0.149 GC
2 setlinecap
1 LJ
0.667 LW
N
119 43 M
542 43 L
S
GR
GS
[0.75 0 0 0.75 0 0.5] CT
0.149 GC
2 setlinecap
1 LJ
0.667 LW
N
142.5 353 M
142.5 348.77 L
S
GR
GS
[0.75 0 0 0.75 0 0.5] CT
0.149 GC
2 setlinecap
1 LJ
0.667 LW
N
209.643 353 M
209.643 348.77 L
S
GR
GS
[0.75 0 0 0.75 0 0.5] CT
0.149 GC
2 setlinecap
1 LJ
0.667 LW
N
276.786 353 M
276.786 348.77 L
S
GR
GS
[0.75 0 0 0.75 0 0.5] CT
0.149 GC
2 setlinecap
1 LJ
0.667 LW
N
343.929 353 M
343.929 348.77 L
S
GR
GS
[0.75 0 0 0.75 0 0.5] CT
0.149 GC
2 setlinecap
1 LJ
0.667 LW
N
411.071 353 M
411.071 348.77 L
S
GR
GS
[0.75 0 0 0.75 0 0.5] CT
0.149 GC
2 setlinecap
1 LJ
0.667 LW
N
478.214 353 M
478.214 348.77 L
S
GR
GS
[0.75 0 0 0.75 0 0.5] CT
0.149 GC
2 setlinecap
1 LJ
0.667 LW
N
142.5 43 M
142.5 47.23 L
S
GR
GS
[0.75 0 0 0.75 0 0.5] CT
0.149 GC
2 setlinecap
1 LJ
0.667 LW
N
209.643 43 M
209.643 47.23 L
S
GR
GS
[0.75 0 0 0.75 0 0.5] CT
0.149 GC
2 setlinecap
1 LJ
0.667 LW
N
276.786 43 M
276.786 47.23 L
S
GR
GS
[0.75 0 0 0.75 0 0.5] CT
0.149 GC
2 setlinecap
1 LJ
0.667 LW
N
343.929 43 M
343.929 47.23 L
S
GR
GS
[0.75 0 0 0.75 0 0.5] CT
0.149 GC
2 setlinecap
1 LJ
0.667 LW
N
411.071 43 M
411.071 47.23 L
S
GR
GS
[0.75 0 0 0.75 0 0.5] CT
0.149 GC
2 setlinecap
1 LJ
0.667 LW
N
478.214 43 M
478.214 47.23 L
S
GR
GS
[0.75 0 0 0.75 106.87498 269.25001] CT
0.149 GC
/Helvetica 13.333 F
GS
[1 0 0 1 0 0] CT
-13 14 moveto 
1 -1 scale
(0.65) t 
GR
GR
GS
[0.75 0 0 0.75 157.23213 269.25001] CT
0.149 GC
/Helvetica 13.333 F
GS
[1 0 0 1 0 0] CT
-9.5 14 moveto 
1 -1 scale
(0.7) t 
GR
GR
GS
[0.75 0 0 0.75 207.58928 269.25001] CT
0.149 GC
/Helvetica 13.333 F
GS
[1 0 0 1 0 0] CT
-13 14 moveto 
1 -1 scale
(0.75) t 
GR
GR
GS
[0.75 0 0 0.75 257.94644 269.25001] CT
0.149 GC
/Helvetica 13.333 F
GS
[1 0 0 1 0 0] CT
-9.5 14 moveto 
1 -1 scale
(0.8) t 
GR
GR
GS
[0.75 0 0 0.75 308.3036 269.25001] CT
0.149 GC
/Helvetica 13.333 F
GS
[1 0 0 1 0 0] CT
-13 14 moveto 
1 -1 scale
(0.85) t 
GR
GR
GS
[0.75 0 0 0.75 358.6607 269.25001] CT
0.149 GC
/Helvetica 13.333 F
GS
[1 0 0 1 0 0] CT
-9.5 14 moveto 
1 -1 scale
(0.9) t 
GR
GR
GS
[0.75 0 0 0.75 0 0.5] CT
0.149 GC
2 setlinecap
1 LJ
0.667 LW
N
119 353 M
119 43 L
S
GR
GS
[0.75 0 0 0.75 0 0.5] CT
0.149 GC
2 setlinecap
1 LJ
0.667 LW
N
542 353 M
542 43 L
S
GR
GS
[0.75 0 0 0.75 0 0.5] CT
0.149 GC
2 setlinecap
1 LJ
0.667 LW
N
119 353 M
123.23 353 L
S
GR
GS
[0.75 0 0 0.75 0 0.5] CT
0.149 GC
2 setlinecap
1 LJ
0.667 LW
N
119 318.556 M
123.23 318.556 L
S
GR
GS
[0.75 0 0 0.75 0 0.5] CT
0.149 GC
2 setlinecap
1 LJ
0.667 LW
N
119 284.111 M
123.23 284.111 L
S
GR
GS
[0.75 0 0 0.75 0 0.5] CT
0.149 GC
2 setlinecap
1 LJ
0.667 LW
N
119 249.667 M
123.23 249.667 L
S
GR
GS
[0.75 0 0 0.75 0 0.5] CT
0.149 GC
2 setlinecap
1 LJ
0.667 LW
N
119 215.222 M
123.23 215.222 L
S
GR
GS
[0.75 0 0 0.75 0 0.5] CT
0.149 GC
2 setlinecap
1 LJ
0.667 LW
N
119 180.778 M
123.23 180.778 L
S
GR
GS
[0.75 0 0 0.75 0 0.5] CT
0.149 GC
2 setlinecap
1 LJ
0.667 LW
N
119 146.333 M
123.23 146.333 L
S
GR
GS
[0.75 0 0 0.75 0 0.5] CT
0.149 GC
2 setlinecap
1 LJ
0.667 LW
N
119 111.889 M
123.23 111.889 L
S
GR
GS
[0.75 0 0 0.75 0 0.5] CT
0.149 GC
2 setlinecap
1 LJ
0.667 LW
N
119 77.444 M
123.23 77.444 L
S
GR
GS
[0.75 0 0 0.75 0 0.5] CT
0.149 GC
2 setlinecap
1 LJ
0.667 LW
N
119 43 M
123.23 43 L
S
GR
GS
[0.75 0 0 0.75 0 0.5] CT
0.149 GC
2 setlinecap
1 LJ
0.667 LW
N
542 353 M
537.77 353 L
S
GR
GS
[0.75 0 0 0.75 0 0.5] CT
0.149 GC
2 setlinecap
1 LJ
0.667 LW
N
542 318.556 M
537.77 318.556 L
S
GR
GS
[0.75 0 0 0.75 0 0.5] CT
0.149 GC
2 setlinecap
1 LJ
0.667 LW
N
542 284.111 M
537.77 284.111 L
S
GR
GS
[0.75 0 0 0.75 0 0.5] CT
0.149 GC
2 setlinecap
1 LJ
0.667 LW
N
542 249.667 M
537.77 249.667 L
S
GR
GS
[0.75 0 0 0.75 0 0.5] CT
0.149 GC
2 setlinecap
1 LJ
0.667 LW
N
542 215.222 M
537.77 215.222 L
S
GR
GS
[0.75 0 0 0.75 0 0.5] CT
0.149 GC
2 setlinecap
1 LJ
0.667 LW
N
542 180.778 M
537.77 180.778 L
S
GR
GS
[0.75 0 0 0.75 0 0.5] CT
0.149 GC
2 setlinecap
1 LJ
0.667 LW
N
542 146.333 M
537.77 146.333 L
S
GR
GS
[0.75 0 0 0.75 0 0.5] CT
0.149 GC
2 setlinecap
1 LJ
0.667 LW
N
542 111.889 M
537.77 111.889 L
S
GR
GS
[0.75 0 0 0.75 0 0.5] CT
0.149 GC
2 setlinecap
1 LJ
0.667 LW
N
542 77.444 M
537.77 77.444 L
S
GR
GS
[0.75 0 0 0.75 0 0.5] CT
0.149 GC
2 setlinecap
1 LJ
0.667 LW
N
542 43 M
537.77 43 L
S
GR
GS
[0.75 0 0 0.75 85.24999 265.25] CT
0.149 GC
/Helvetica 13.333 F
GS
[1 0 0 1 0 0] CT
-15 5.5 moveto 
1 -1 scale
(10) t 
GR
GR
GS
[0.75 0 0 0.75 85.24999 239.41666] CT
0.149 GC
/Helvetica 13.333 F
GS
[1 0 0 1 0 0] CT
-15 5.5 moveto 
1 -1 scale
(20) t 
GR
GR
GS
[0.75 0 0 0.75 85.24999 213.58334] CT
0.149 GC
/Helvetica 13.333 F
GS
[1 0 0 1 0 0] CT
-15 5.5 moveto 
1 -1 scale
(30) t 
GR
GR
GS
[0.75 0 0 0.75 85.24999 187.75] CT
0.149 GC
/Helvetica 13.333 F
GS
[1 0 0 1 0 0] CT
-15 5.5 moveto 
1 -1 scale
(40) t 
GR
GR
GS
[0.75 0 0 0.75 85.24999 161.91667] CT
0.149 GC
/Helvetica 13.333 F
GS
[1 0 0 1 0 0] CT
-15 5.5 moveto 
1 -1 scale
(50) t 
GR
GR
GS
[0.75 0 0 0.75 85.24999 136.08333] CT
0.149 GC
/Helvetica 13.333 F
GS
[1 0 0 1 0 0] CT
-15 5.5 moveto 
1 -1 scale
(60) t 
GR
GR
GS
[0.75 0 0 0.75 85.24999 110.25] CT
0.149 GC
/Helvetica 13.333 F
GS
[1 0 0 1 0 0] CT
-15 5.5 moveto 
1 -1 scale
(70) t 
GR
GR
GS
[0.75 0 0 0.75 85.24999 84.41666] CT
0.149 GC
/Helvetica 13.333 F
GS
[1 0 0 1 0 0] CT
-15 5.5 moveto 
1 -1 scale
(80) t 
GR
GR
GS
[0.75 0 0 0.75 85.24999 58.58333] CT
0.149 GC
/Helvetica 13.333 F
GS
[1 0 0 1 0 0] CT
-15 5.5 moveto 
1 -1 scale
(90) t 
GR
GR
GS
[0.75 0 0 0.75 85.24999 32.75] CT
0.149 GC
/Helvetica 13.333 F
GS
[1 0 0 1 0 0] CT
-22 5.5 moveto 
1 -1 scale
(100) t 
GR
GR
GS
[0.75 0 0 0.75 96.80356 200.66666] CT
1 0 0 RC
10.0 ML
0.667 LW
N
3.5 -0.5 M
3.5 -2.709 1.709 -4.5 -0.5 -4.5 C
-2.709 -4.5 -4.5 -2.709 -4.5 -0.5 C
-4.5 1.709 -2.709 3.5 -0.5 3.5 C
1.709 3.5 3.5 1.709 3.5 -0.5 C
S
GR
GS
[0.75 0 0 0.75 137.08929 195.5] CT
1 0 0 RC
10.0 ML
0.667 LW
N
3.5 -0.5 M
3.5 -2.709 1.709 -4.5 -0.5 -4.5 C
-2.709 -4.5 -4.5 -2.709 -4.5 -0.5 C
-4.5 1.709 -2.709 3.5 -0.5 3.5 C
1.709 3.5 3.5 1.709 3.5 -0.5 C
S
GR
GS
[0.75 0 0 0.75 137.08929 164.5] CT
1 0 0 RC
10.0 ML
0.667 LW
N
3.5 -0.5 M
3.5 -2.709 1.709 -4.5 -0.5 -4.5 C
-2.709 -4.5 -4.5 -2.709 -4.5 -0.5 C
-4.5 1.709 -2.709 3.5 -0.5 3.5 C
1.709 3.5 3.5 1.709 3.5 -0.5 C
S
GR
GS
[0.75 0 0 0.75 177.37503 172.25] CT
1 0 0 RC
10.0 ML
0.667 LW
N
3.5 -0.5 M
3.5 -2.709 1.709 -4.5 -0.5 -4.5 C
-2.709 -4.5 -4.5 -2.709 -4.5 -0.5 C
-4.5 1.709 -2.709 3.5 -0.5 3.5 C
1.709 3.5 3.5 1.709 3.5 -0.5 C
S
GR
GS
[0.75 0 0 0.75 177.37503 128.33333] CT
1 0 0 RC
10.0 ML
0.667 LW
N
3.5 -0.5 M
3.5 -2.709 1.709 -4.5 -0.5 -4.5 C
-2.709 -4.5 -4.5 -2.709 -4.5 -0.5 C
-4.5 1.709 -2.709 3.5 -0.5 3.5 C
1.709 3.5 3.5 1.709 3.5 -0.5 C
S
GR
GS
[0.75 0 0 0.75 217.6607 190.33334] CT
1 0 0 RC
10.0 ML
0.667 LW
N
3.5 -0.5 M
3.5 -2.709 1.709 -4.5 -0.5 -4.5 C
-2.709 -4.5 -4.5 -2.709 -4.5 -0.5 C
-4.5 1.709 -2.709 3.5 -0.5 3.5 C
1.709 3.5 3.5 1.709 3.5 -0.5 C
S
GR
GS
[0.75 0 0 0.75 217.6607 172.25] CT
1 0 0 RC
10.0 ML
0.667 LW
N
3.5 -0.5 M
3.5 -2.709 1.709 -4.5 -0.5 -4.5 C
-2.709 -4.5 -4.5 -2.709 -4.5 -0.5 C
-4.5 1.709 -2.709 3.5 -0.5 3.5 C
1.709 3.5 3.5 1.709 3.5 -0.5 C
S
GR
GS
[0.75 0 0 0.75 217.6607 146.41667] CT
1 0 0 RC
10.0 ML
0.667 LW
N
3.5 -0.5 M
3.5 -2.709 1.709 -4.5 -0.5 -4.5 C
-2.709 -4.5 -4.5 -2.709 -4.5 -0.5 C
-4.5 1.709 -2.709 3.5 -0.5 3.5 C
1.709 3.5 3.5 1.709 3.5 -0.5 C
S
GR
GS
[0.75 0 0 0.75 217.6607 128.33333] CT
1 0 0 RC
10.0 ML
0.667 LW
N
3.5 -0.5 M
3.5 -2.709 1.709 -4.5 -0.5 -4.5 C
-2.709 -4.5 -4.5 -2.709 -4.5 -0.5 C
-4.5 1.709 -2.709 3.5 -0.5 3.5 C
1.709 3.5 3.5 1.709 3.5 -0.5 C
S
GR
GS
[0.75 0 0 0.75 217.6607 123.16667] CT
1 0 0 RC
10.0 ML
0.667 LW
N
3.5 -0.5 M
3.5 -2.709 1.709 -4.5 -0.5 -4.5 C
-2.709 -4.5 -4.5 -2.709 -4.5 -0.5 C
-4.5 1.709 -2.709 3.5 -0.5 3.5 C
1.709 3.5 3.5 1.709 3.5 -0.5 C
S
GR
GS
[0.75 0 0 0.75 257.94644 146.41667] CT
1 0 0 RC
10.0 ML
0.667 LW
N
3.5 -0.5 M
3.5 -2.709 1.709 -4.5 -0.5 -4.5 C
-2.709 -4.5 -4.5 -2.709 -4.5 -0.5 C
-4.5 1.709 -2.709 3.5 -0.5 3.5 C
1.709 3.5 3.5 1.709 3.5 -0.5 C
S
GR
GS
[0.75 0 0 0.75 257.94644 123.16667] CT
1 0 0 RC
10.0 ML
0.667 LW
N
3.5 -0.5 M
3.5 -2.709 1.709 -4.5 -0.5 -4.5 C
-2.709 -4.5 -4.5 -2.709 -4.5 -0.5 C
-4.5 1.709 -2.709 3.5 -0.5 3.5 C
1.709 3.5 3.5 1.709 3.5 -0.5 C
S
GR
GS
[0.75 0 0 0.75 257.94644 110.25] CT
1 0 0 RC
10.0 ML
0.667 LW
N
3.5 -0.5 M
3.5 -2.709 1.709 -4.5 -0.5 -4.5 C
-2.709 -4.5 -4.5 -2.709 -4.5 -0.5 C
-4.5 1.709 -2.709 3.5 -0.5 3.5 C
1.709 3.5 3.5 1.709 3.5 -0.5 C
S
GR
GS
[0.75 0 0 0.75 298.23212 128.33333] CT
1 0 0 RC
10.0 ML
0.667 LW
N
3.5 -0.5 M
3.5 -2.709 1.709 -4.5 -0.5 -4.5 C
-2.709 -4.5 -4.5 -2.709 -4.5 -0.5 C
-4.5 1.709 -2.709 3.5 -0.5 3.5 C
1.709 3.5 3.5 1.709 3.5 -0.5 C
S
GR
GS
[0.75 0 0 0.75 298.23212 123.16667] CT
1 0 0 RC
10.0 ML
0.667 LW
N
3.5 -0.5 M
3.5 -2.709 1.709 -4.5 -0.5 -4.5 C
-2.709 -4.5 -4.5 -2.709 -4.5 -0.5 C
-4.5 1.709 -2.709 3.5 -0.5 3.5 C
1.709 3.5 3.5 1.709 3.5 -0.5 C
S
GR
GS
[0.75 0 0 0.75 298.23212 110.25] CT
1 0 0 RC
10.0 ML
0.667 LW
N
3.5 -0.5 M
3.5 -2.709 1.709 -4.5 -0.5 -4.5 C
-2.709 -4.5 -4.5 -2.709 -4.5 -0.5 C
-4.5 1.709 -2.709 3.5 -0.5 3.5 C
1.709 3.5 3.5 1.709 3.5 -0.5 C
S
GR
GS
[0.75 0 0 0.75 298.23212 92.16667] CT
1 0 0 RC
10.0 ML
0.667 LW
N
3.5 -0.5 M
3.5 -2.709 1.709 -4.5 -0.5 -4.5 C
-2.709 -4.5 -4.5 -2.709 -4.5 -0.5 C
-4.5 1.709 -2.709 3.5 -0.5 3.5 C
1.709 3.5 3.5 1.709 3.5 -0.5 C
S
GR
GS
[0.75 0 0 0.75 298.23212 81.83333] CT
1 0 0 RC
10.0 ML
0.667 LW
N
3.5 -0.5 M
3.5 -2.709 1.709 -4.5 -0.5 -4.5 C
-2.709 -4.5 -4.5 -2.709 -4.5 -0.5 C
-4.5 1.709 -2.709 3.5 -0.5 3.5 C
1.709 3.5 3.5 1.709 3.5 -0.5 C
S
GR
GS
[0.75 0 0 0.75 298.23212 68.91667] CT
1 0 0 RC
10.0 ML
0.667 LW
N
3.5 -0.5 M
3.5 -2.709 1.709 -4.5 -0.5 -4.5 C
-2.709 -4.5 -4.5 -2.709 -4.5 -0.5 C
-4.5 1.709 -2.709 3.5 -0.5 3.5 C
1.709 3.5 3.5 1.709 3.5 -0.5 C
S
GR
GS
[0.75 0 0 0.75 338.51786 110.25] CT
1 0 0 RC
10.0 ML
0.667 LW
N
3.5 -0.5 M
3.5 -2.709 1.709 -4.5 -0.5 -4.5 C
-2.709 -4.5 -4.5 -2.709 -4.5 -0.5 C
-4.5 1.709 -2.709 3.5 -0.5 3.5 C
1.709 3.5 3.5 1.709 3.5 -0.5 C
S
GR
GS
[0.75 0 0 0.75 338.51786 110.25] CT
1 0 0 RC
10.0 ML
0.667 LW
N
3.5 -0.5 M
3.5 -2.709 1.709 -4.5 -0.5 -4.5 C
-2.709 -4.5 -4.5 -2.709 -4.5 -0.5 C
-4.5 1.709 -2.709 3.5 -0.5 3.5 C
1.709 3.5 3.5 1.709 3.5 -0.5 C
S
GR
GS
[0.75 0 0 0.75 378.80358 92.16667] CT
1 0 0 RC
10.0 ML
0.667 LW
N
3.5 -0.5 M
3.5 -2.709 1.709 -4.5 -0.5 -4.5 C
-2.709 -4.5 -4.5 -2.709 -4.5 -0.5 C
-4.5 1.709 -2.709 3.5 -0.5 3.5 C
1.709 3.5 3.5 1.709 3.5 -0.5 C
S
GR
GS
[0.75 0 0 0.75 378.80358 92.16667] CT
1 0 0 RC
10.0 ML
0.667 LW
N
3.5 -0.5 M
3.5 -2.709 1.709 -4.5 -0.5 -4.5 C
-2.709 -4.5 -4.5 -2.709 -4.5 -0.5 C
-4.5 1.709 -2.709 3.5 -0.5 3.5 C
1.709 3.5 3.5 1.709 3.5 -0.5 C
S
GR
GS
[0.75 0 0 0.75 378.80358 81.83333] CT
1 0 0 RC
10.0 ML
0.667 LW
N
3.5 -0.5 M
3.5 -2.709 1.709 -4.5 -0.5 -4.5 C
-2.709 -4.5 -4.5 -2.709 -4.5 -0.5 C
-4.5 1.709 -2.709 3.5 -0.5 3.5 C
1.709 3.5 3.5 1.709 3.5 -0.5 C
S
GR
GS
[0.75 0 0 0.75 398.94644 92.16667] CT
1 0 0 RC
10.0 ML
0.667 LW
N
3.5 -0.5 M
3.5 -2.709 1.709 -4.5 -0.5 -4.5 C
-2.709 -4.5 -4.5 -2.709 -4.5 -0.5 C
-4.5 1.709 -2.709 3.5 -0.5 3.5 C
1.709 3.5 3.5 1.709 3.5 -0.5 C
S
GR
GS
[0.75 0 0 0.75 96.80356 187.75] CT
0.8 1 0 RC
10.0 ML
0.667 LW
N
-2.828 -2.828 M
2.828 2.828 L
-2.828 2.828 M
2.828 -2.828 L
S
GR
GS
[0.75 0 0 0.75 157.23213 195.5] CT
0.8 1 0 RC
10.0 ML
0.667 LW
N
-2.828 -2.828 M
2.828 2.828 L
-2.828 2.828 M
2.828 -2.828 L
S
GR
GS
[0.75 0 0 0.75 177.37503 177.41666] CT
0.8 1 0 RC
10.0 ML
0.667 LW
N
-2.828 -2.828 M
2.828 2.828 L
-2.828 2.828 M
2.828 -2.828 L
S
GR
GS
[0.75 0 0 0.75 177.37503 169.66667] CT
0.8 1 0 RC
10.0 ML
0.667 LW
N
-2.828 -2.828 M
2.828 2.828 L
-2.828 2.828 M
2.828 -2.828 L
S
GR
GS
[0.75 0 0 0.75 177.37503 169.66667] CT
0.8 1 0 RC
10.0 ML
0.667 LW
N
-2.828 -2.828 M
2.828 2.828 L
-2.828 2.828 M
2.828 -2.828 L
S
GR
GS
[0.75 0 0 0.75 217.6607 169.66667] CT
0.8 1 0 RC
10.0 ML
0.667 LW
N
-2.828 -2.828 M
2.828 2.828 L
-2.828 2.828 M
2.828 -2.828 L
S
GR
GS
[0.75 0 0 0.75 237.80354 115.41667] CT
0.8 1 0 RC
10.0 ML
0.667 LW
N
-2.828 -2.828 M
2.828 2.828 L
-2.828 2.828 M
2.828 -2.828 L
S
GR
GS
[0.75 0 0 0.75 257.94644 169.66667] CT
0.8 1 0 RC
10.0 ML
0.667 LW
N
-2.828 -2.828 M
2.828 2.828 L
-2.828 2.828 M
2.828 -2.828 L
S
GR
GS
[0.75 0 0 0.75 298.23212 151.58333] CT
0.8 1 0 RC
10.0 ML
0.667 LW
N
-2.828 -2.828 M
2.828 2.828 L
-2.828 2.828 M
2.828 -2.828 L
S
GR
GS
[0.75 0 0 0.75 298.23212 133.5] CT
0.8 1 0 RC
10.0 ML
0.667 LW
N
-2.828 -2.828 M
2.828 2.828 L
-2.828 2.828 M
2.828 -2.828 L
S
GR
GS
[0.75 0 0 0.75 298.23212 107.66666] CT
0.8 1 0 RC
10.0 ML
0.667 LW
N
-2.828 -2.828 M
2.828 2.828 L
-2.828 2.828 M
2.828 -2.828 L
S
GR
GS
[0.75 0 0 0.75 298.23212 97.33334] CT
0.8 1 0 RC
10.0 ML
0.667 LW
N
-2.828 -2.828 M
2.828 2.828 L
-2.828 2.828 M
2.828 -2.828 L
S
GR
GS
[0.75 0 0 0.75 298.23212 61.16666] CT
0.8 1 0 RC
10.0 ML
0.667 LW
N
-2.828 -2.828 M
2.828 2.828 L
-2.828 2.828 M
2.828 -2.828 L
S
GR
GS
[0.75 0 0 0.75 338.51786 141.25] CT
0.8 1 0 RC
10.0 ML
0.667 LW
N
-2.828 -2.828 M
2.828 2.828 L
-2.828 2.828 M
2.828 -2.828 L
S
GR
GS
[0.75 0 0 0.75 338.51786 138.66667] CT
0.8 1 0 RC
10.0 ML
0.667 LW
N
-2.828 -2.828 M
2.828 2.828 L
-2.828 2.828 M
2.828 -2.828 L
S
GR
GS
[0.75 0 0 0.75 338.51786 130.91666] CT
0.8 1 0 RC
10.0 ML
0.667 LW
N
-2.828 -2.828 M
2.828 2.828 L
-2.828 2.828 M
2.828 -2.828 L
S
GR
GS
[0.75 0 0 0.75 338.51786 87] CT
0.8 1 0 RC
10.0 ML
0.667 LW
N
-2.828 -2.828 M
2.828 2.828 L
-2.828 2.828 M
2.828 -2.828 L
S
GR
GS
[0.75 0 0 0.75 338.51786 43.08333] CT
0.8 1 0 RC
10.0 ML
0.667 LW
N
-2.828 -2.828 M
2.828 2.828 L
-2.828 2.828 M
2.828 -2.828 L
S
GR
GS
[0.75 0 0 0.75 378.80358 141.25] CT
0.8 1 0 RC
10.0 ML
0.667 LW
N
-2.828 -2.828 M
2.828 2.828 L
-2.828 2.828 M
2.828 -2.828 L
S
GR
GS
[0.75 0 0 0.75 378.80358 130.91666] CT
0.8 1 0 RC
10.0 ML
0.667 LW
N
-2.828 -2.828 M
2.828 2.828 L
-2.828 2.828 M
2.828 -2.828 L
S
GR
GS
[0.75 0 0 0.75 378.80358 110.25] CT
0.8 1 0 RC
10.0 ML
0.667 LW
N
-2.828 -2.828 M
2.828 2.828 L
-2.828 2.828 M
2.828 -2.828 L
S
GR
GS
[0.75 0 0 0.75 378.80358 105.08333] CT
0.8 1 0 RC
10.0 ML
0.667 LW
N
-2.828 -2.828 M
2.828 2.828 L
-2.828 2.828 M
2.828 -2.828 L
S
GR
GS
[0.75 0 0 0.75 378.80358 97.33334] CT
0.8 1 0 RC
10.0 ML
0.667 LW
N
-2.828 -2.828 M
2.828 2.828 L
-2.828 2.828 M
2.828 -2.828 L
S
GR
GS
[0.75 0 0 0.75 378.80358 43.08333] CT
0.8 1 0 RC
10.0 ML
0.667 LW
N
-2.828 -2.828 M
2.828 2.828 L
-2.828 2.828 M
2.828 -2.828 L
S
GR
GS
[0.75 0 0 0.75 398.94644 97.33334] CT
0.8 1 0 RC
10.0 ML
0.667 LW
N
-2.828 -2.828 M
2.828 2.828 L
-2.828 2.828 M
2.828 -2.828 L
S
GR
GS
[0.75 0 0 0.75 96.80356 172.25] CT
0 1 0.4 RC
10.0 ML
0.667 LW
N
0 -4 M
0 4 L
-4 0 M
4 0 L
S
GR
GS
[0.75 0 0 0.75 137.08929 182.58333] CT
0 1 0.4 RC
10.0 ML
0.667 LW
N
0 -4 M
0 4 L
-4 0 M
4 0 L
S
GR
GS
[0.75 0 0 0.75 177.37503 123.16667] CT
0 1 0.4 RC
10.0 ML
0.667 LW
N
0 -4 M
0 4 L
-4 0 M
4 0 L
S
GR
GS
[0.75 0 0 0.75 217.6607 172.25] CT
0 1 0.4 RC
10.0 ML
0.667 LW
N
0 -4 M
0 4 L
-4 0 M
4 0 L
S
GR
GS
[0.75 0 0 0.75 217.6607 141.25] CT
0 1 0.4 RC
10.0 ML
0.667 LW
N
0 -4 M
0 4 L
-4 0 M
4 0 L
S
GR
GS
[0.75 0 0 0.75 257.94644 182.58333] CT
0 1 0.4 RC
10.0 ML
0.667 LW
N
0 -4 M
0 4 L
-4 0 M
4 0 L
S
GR
GS
[0.75 0 0 0.75 257.94644 167.08334] CT
0 1 0.4 RC
10.0 ML
0.667 LW
N
0 -4 M
0 4 L
-4 0 M
4 0 L
S
GR
GS
[0.75 0 0 0.75 257.94644 141.25] CT
0 1 0.4 RC
10.0 ML
0.667 LW
N
0 -4 M
0 4 L
-4 0 M
4 0 L
S
GR
GS
[0.75 0 0 0.75 278.08928 161.91667] CT
0 1 0.4 RC
10.0 ML
0.667 LW
N
0 -4 M
0 4 L
-4 0 M
4 0 L
S
GR
GS
[0.75 0 0 0.75 278.08928 84.41666] CT
0 1 0.4 RC
10.0 ML
0.667 LW
N
0 -4 M
0 4 L
-4 0 M
4 0 L
S
GR
GS
[0.75 0 0 0.75 298.23212 128.33333] CT
0 1 0.4 RC
10.0 ML
0.667 LW
N
0 -4 M
0 4 L
-4 0 M
4 0 L
S
GR
GS
[0.75 0 0 0.75 298.23212 123.16667] CT
0 1 0.4 RC
10.0 ML
0.667 LW
N
0 -4 M
0 4 L
-4 0 M
4 0 L
S
GR
GS
[0.75 0 0 0.75 298.23212 110.25] CT
0 1 0.4 RC
10.0 ML
0.667 LW
N
0 -4 M
0 4 L
-4 0 M
4 0 L
S
GR
GS
[0.75 0 0 0.75 298.23212 110.25] CT
0 1 0.4 RC
10.0 ML
0.667 LW
N
0 -4 M
0 4 L
-4 0 M
4 0 L
S
GR
GS
[0.75 0 0 0.75 298.23212 105.08333] CT
0 1 0.4 RC
10.0 ML
0.667 LW
N
0 -4 M
0 4 L
-4 0 M
4 0 L
S
GR
GS
[0.75 0 0 0.75 298.23212 40.5] CT
0 1 0.4 RC
10.0 ML
0.667 LW
N
0 -4 M
0 4 L
-4 0 M
4 0 L
S
GR
GS
[0.75 0 0 0.75 338.51786 172.25] CT
0 1 0.4 RC
10.0 ML
0.667 LW
N
0 -4 M
0 4 L
-4 0 M
4 0 L
S
GR
GS
[0.75 0 0 0.75 338.51786 146.41667] CT
0 1 0.4 RC
10.0 ML
0.667 LW
N
0 -4 M
0 4 L
-4 0 M
4 0 L
S
GR
GS
[0.75 0 0 0.75 338.51786 110.25] CT
0 1 0.4 RC
10.0 ML
0.667 LW
N
0 -4 M
0 4 L
-4 0 M
4 0 L
S
GR
GS
[0.75 0 0 0.75 338.51786 110.25] CT
0 1 0.4 RC
10.0 ML
0.667 LW
N
0 -4 M
0 4 L
-4 0 M
4 0 L
S
GR
GS
[0.75 0 0 0.75 338.51786 105.08333] CT
0 1 0.4 RC
10.0 ML
0.667 LW
N
0 -4 M
0 4 L
-4 0 M
4 0 L
S
GR
GS
[0.75 0 0 0.75 338.51786 94.75] CT
0 1 0.4 RC
10.0 ML
0.667 LW
N
0 -4 M
0 4 L
-4 0 M
4 0 L
S
GR
GS
[0.75 0 0 0.75 338.51786 58.58333] CT
0 1 0.4 RC
10.0 ML
0.667 LW
N
0 -4 M
0 4 L
-4 0 M
4 0 L
S
GR
GS
[0.75 0 0 0.75 378.80358 94.75] CT
0 1 0.4 RC
10.0 ML
0.667 LW
N
0 -4 M
0 4 L
-4 0 M
4 0 L
S
GR
GS
[0.75 0 0 0.75 378.80358 53.41667] CT
0 1 0.4 RC
10.0 ML
0.667 LW
N
0 -4 M
0 4 L
-4 0 M
4 0 L
S
GR
GS
[0.75 0 0 0.75 137.08929 236.83334] CT
0 0.4 1 RC
10.0 ML
0.667 LW
N
0 -4 M
0 4 L
-4 0 M
4 0 L
-2.828 -2.828 M
2.828 2.828 L
-2.828 2.828 M
2.828 -2.828 L
S
GR
GS
[0.75 0 0 0.75 137.08929 187.75] CT
0 0.4 1 RC
10.0 ML
0.667 LW
N
0 -4 M
0 4 L
-4 0 M
4 0 L
-2.828 -2.828 M
2.828 2.828 L
-2.828 2.828 M
2.828 -2.828 L
S
GR
GS
[0.75 0 0 0.75 177.37503 177.41666] CT
0 0.4 1 RC
10.0 ML
0.667 LW
N
0 -4 M
0 4 L
-4 0 M
4 0 L
-2.828 -2.828 M
2.828 2.828 L
-2.828 2.828 M
2.828 -2.828 L
S
GR
GS
[0.75 0 0 0.75 217.6607 151.58333] CT
0 0.4 1 RC
10.0 ML
0.667 LW
N
0 -4 M
0 4 L
-4 0 M
4 0 L
-2.828 -2.828 M
2.828 2.828 L
-2.828 2.828 M
2.828 -2.828 L
S
GR
GS
[0.75 0 0 0.75 237.80354 198.08334] CT
0 0.4 1 RC
10.0 ML
0.667 LW
N
0 -4 M
0 4 L
-4 0 M
4 0 L
-2.828 -2.828 M
2.828 2.828 L
-2.828 2.828 M
2.828 -2.828 L
S
GR
GS
[0.75 0 0 0.75 257.94644 187.75] CT
0 0.4 1 RC
10.0 ML
0.667 LW
N
0 -4 M
0 4 L
-4 0 M
4 0 L
-2.828 -2.828 M
2.828 2.828 L
-2.828 2.828 M
2.828 -2.828 L
S
GR
GS
[0.75 0 0 0.75 257.94644 146.41667] CT
0 0.4 1 RC
10.0 ML
0.667 LW
N
0 -4 M
0 4 L
-4 0 M
4 0 L
-2.828 -2.828 M
2.828 2.828 L
-2.828 2.828 M
2.828 -2.828 L
S
GR
GS
[0.75 0 0 0.75 257.94644 136.08333] CT
0 0.4 1 RC
10.0 ML
0.667 LW
N
0 -4 M
0 4 L
-4 0 M
4 0 L
-2.828 -2.828 M
2.828 2.828 L
-2.828 2.828 M
2.828 -2.828 L
S
GR
GS
[0.75 0 0 0.75 298.23212 167.08334] CT
0 0.4 1 RC
10.0 ML
0.667 LW
N
0 -4 M
0 4 L
-4 0 M
4 0 L
-2.828 -2.828 M
2.828 2.828 L
-2.828 2.828 M
2.828 -2.828 L
S
GR
GS
[0.75 0 0 0.75 298.23212 154.16666] CT
0 0.4 1 RC
10.0 ML
0.667 LW
N
0 -4 M
0 4 L
-4 0 M
4 0 L
-2.828 -2.828 M
2.828 2.828 L
-2.828 2.828 M
2.828 -2.828 L
S
GR
GS
[0.75 0 0 0.75 298.23212 136.08333] CT
0 0.4 1 RC
10.0 ML
0.667 LW
N
0 -4 M
0 4 L
-4 0 M
4 0 L
-2.828 -2.828 M
2.828 2.828 L
-2.828 2.828 M
2.828 -2.828 L
S
GR
GS
[0.75 0 0 0.75 298.23212 136.08333] CT
0 0.4 1 RC
10.0 ML
0.667 LW
N
0 -4 M
0 4 L
-4 0 M
4 0 L
-2.828 -2.828 M
2.828 2.828 L
-2.828 2.828 M
2.828 -2.828 L
S
GR
GS
[0.75 0 0 0.75 298.23212 123.16667] CT
0 0.4 1 RC
10.0 ML
0.667 LW
N
0 -4 M
0 4 L
-4 0 M
4 0 L
-2.828 -2.828 M
2.828 2.828 L
-2.828 2.828 M
2.828 -2.828 L
S
GR
GS
[0.75 0 0 0.75 298.23212 115.41667] CT
0 0.4 1 RC
10.0 ML
0.667 LW
N
0 -4 M
0 4 L
-4 0 M
4 0 L
-2.828 -2.828 M
2.828 2.828 L
-2.828 2.828 M
2.828 -2.828 L
S
GR
GS
[0.75 0 0 0.75 338.51786 136.08333] CT
0 0.4 1 RC
10.0 ML
0.667 LW
N
0 -4 M
0 4 L
-4 0 M
4 0 L
-2.828 -2.828 M
2.828 2.828 L
-2.828 2.828 M
2.828 -2.828 L
S
GR
GS
[0.75 0 0 0.75 338.51786 81.83333] CT
0 0.4 1 RC
10.0 ML
0.667 LW
N
0 -4 M
0 4 L
-4 0 M
4 0 L
-2.828 -2.828 M
2.828 2.828 L
-2.828 2.828 M
2.828 -2.828 L
S
GR
GS
[0.75 0 0 0.75 338.51786 81.83333] CT
0 0.4 1 RC
10.0 ML
0.667 LW
N
0 -4 M
0 4 L
-4 0 M
4 0 L
-2.828 -2.828 M
2.828 2.828 L
-2.828 2.828 M
2.828 -2.828 L
S
GR
GS
[0.75 0 0 0.75 358.6607 167.08334] CT
0 0.4 1 RC
10.0 ML
0.667 LW
N
0 -4 M
0 4 L
-4 0 M
4 0 L
-2.828 -2.828 M
2.828 2.828 L
-2.828 2.828 M
2.828 -2.828 L
S
GR
GS
[0.75 0 0 0.75 358.6607 167.08334] CT
0 0.4 1 RC
10.0 ML
0.667 LW
N
0 -4 M
0 4 L
-4 0 M
4 0 L
-2.828 -2.828 M
2.828 2.828 L
-2.828 2.828 M
2.828 -2.828 L
S
GR
GS
[0.75 0 0 0.75 358.6607 146.41667] CT
0 0.4 1 RC
10.0 ML
0.667 LW
N
0 -4 M
0 4 L
-4 0 M
4 0 L
-2.828 -2.828 M
2.828 2.828 L
-2.828 2.828 M
2.828 -2.828 L
S
GR
GS
[0.75 0 0 0.75 358.6607 115.41667] CT
0 0.4 1 RC
10.0 ML
0.667 LW
N
0 -4 M
0 4 L
-4 0 M
4 0 L
-2.828 -2.828 M
2.828 2.828 L
-2.828 2.828 M
2.828 -2.828 L
S
GR
GS
[0.75 0 0 0.75 358.6607 97.33334] CT
0 0.4 1 RC
10.0 ML
0.667 LW
N
0 -4 M
0 4 L
-4 0 M
4 0 L
-2.828 -2.828 M
2.828 2.828 L
-2.828 2.828 M
2.828 -2.828 L
S
GR
GS
[0.75 0 0 0.75 358.6607 81.83333] CT
0 0.4 1 RC
10.0 ML
0.667 LW
N
0 -4 M
0 4 L
-4 0 M
4 0 L
-2.828 -2.828 M
2.828 2.828 L
-2.828 2.828 M
2.828 -2.828 L
S
GR
GS
[0.75 0 0 0.75 378.80358 167.08334] CT
0 0.4 1 RC
10.0 ML
0.667 LW
N
0 -4 M
0 4 L
-4 0 M
4 0 L
-2.828 -2.828 M
2.828 2.828 L
-2.828 2.828 M
2.828 -2.828 L
S
GR
GS
[0.75 0 0 0.75 378.80358 115.41667] CT
0 0.4 1 RC
10.0 ML
0.667 LW
N
0 -4 M
0 4 L
-4 0 M
4 0 L
-2.828 -2.828 M
2.828 2.828 L
-2.828 2.828 M
2.828 -2.828 L
S
GR
GS
[0.75 0 0 0.75 96.80356 249.75001] CT
0.8 0 1 RC
10.0 ML
0.667 LW
N
-3 -3 M
-3 3 L
3 3 L
3 -3 L
cp
S
GR
GS
[0.75 0 0 0.75 96.80356 242] CT
0.8 0 1 RC
10.0 ML
0.667 LW
N
-3 -3 M
-3 3 L
3 3 L
3 -3 L
cp
S
GR
GS
[0.75 0 0 0.75 137.08929 242] CT
0.8 0 1 RC
10.0 ML
0.667 LW
N
-3 -3 M
-3 3 L
3 3 L
3 -3 L
cp
S
GR
GS
[0.75 0 0 0.75 177.37503 208.41667] CT
0.8 0 1 RC
10.0 ML
0.667 LW
N
-3 -3 M
-3 3 L
3 3 L
3 -3 L
cp
S
GR
GS
[0.75 0 0 0.75 177.37503 205.83333] CT
0.8 0 1 RC
10.0 ML
0.667 LW
N
-3 -3 M
-3 3 L
3 3 L
3 -3 L
cp
S
GR
GS
[0.75 0 0 0.75 197.51786 205.83333] CT
0.8 0 1 RC
10.0 ML
0.667 LW
N
-3 -3 M
-3 3 L
3 3 L
3 -3 L
cp
S
GR
GS
[0.75 0 0 0.75 217.6607 213.58334] CT
0.8 0 1 RC
10.0 ML
0.667 LW
N
-3 -3 M
-3 3 L
3 3 L
3 -3 L
cp
S
GR
GS
[0.75 0 0 0.75 217.6607 182.58333] CT
0.8 0 1 RC
10.0 ML
0.667 LW
N
-3 -3 M
-3 3 L
3 3 L
3 -3 L
cp
S
GR
GS
[0.75 0 0 0.75 217.6607 182.58333] CT
0.8 0 1 RC
10.0 ML
0.667 LW
N
-3 -3 M
-3 3 L
3 3 L
3 -3 L
cp
S
GR
GS
[0.75 0 0 0.75 237.80354 205.83333] CT
0.8 0 1 RC
10.0 ML
0.667 LW
N
-3 -3 M
-3 3 L
3 3 L
3 -3 L
cp
S
GR
GS
[0.75 0 0 0.75 257.94644 223.91666] CT
0.8 0 1 RC
10.0 ML
0.667 LW
N
-3 -3 M
-3 3 L
3 3 L
3 -3 L
cp
S
GR
GS
[0.75 0 0 0.75 257.94644 213.58334] CT
0.8 0 1 RC
10.0 ML
0.667 LW
N
-3 -3 M
-3 3 L
3 3 L
3 -3 L
cp
S
GR
GS
[0.75 0 0 0.75 278.08928 187.75] CT
0.8 0 1 RC
10.0 ML
0.667 LW
N
-3 -3 M
-3 3 L
3 3 L
3 -3 L
cp
S
GR
GS
[0.75 0 0 0.75 278.08928 151.58333] CT
0.8 0 1 RC
10.0 ML
0.667 LW
N
-3 -3 M
-3 3 L
3 3 L
3 -3 L
cp
S
GR
GS
[0.75 0 0 0.75 298.23212 203.25001] CT
0.8 0 1 RC
10.0 ML
0.667 LW
N
-3 -3 M
-3 3 L
3 3 L
3 -3 L
cp
S
GR
GS
[0.75 0 0 0.75 298.23212 203.25001] CT
0.8 0 1 RC
10.0 ML
0.667 LW
N
-3 -3 M
-3 3 L
3 3 L
3 -3 L
cp
S
GR
GS
[0.75 0 0 0.75 298.23212 169.66667] CT
0.8 0 1 RC
10.0 ML
0.667 LW
N
-3 -3 M
-3 3 L
3 3 L
3 -3 L
cp
S
GR
GS
[0.75 0 0 0.75 298.23212 169.66667] CT
0.8 0 1 RC
10.0 ML
0.667 LW
N
-3 -3 M
-3 3 L
3 3 L
3 -3 L
cp
S
GR
GS
[0.75 0 0 0.75 338.51786 182.58333] CT
0.8 0 1 RC
10.0 ML
0.667 LW
N
-3 -3 M
-3 3 L
3 3 L
3 -3 L
cp
S
GR
GS
[0.75 0 0 0.75 338.51786 169.66667] CT
0.8 0 1 RC
10.0 ML
0.667 LW
N
-3 -3 M
-3 3 L
3 3 L
3 -3 L
cp
S
GR
GS
[0.75 0 0 0.75 338.51786 151.58333] CT
0.8 0 1 RC
10.0 ML
0.667 LW
N
-3 -3 M
-3 3 L
3 3 L
3 -3 L
cp
S
GR
GS
[0.75 0 0 0.75 338.51786 151.58333] CT
0.8 0 1 RC
10.0 ML
0.667 LW
N
-3 -3 M
-3 3 L
3 3 L
3 -3 L
cp
S
GR
GS
[0.75 0 0 0.75 338.51786 146.41667] CT
0.8 0 1 RC
10.0 ML
0.667 LW
N
-3 -3 M
-3 3 L
3 3 L
3 -3 L
cp
S
GR
GS
[0.75 0 0 0.75 338.51786 136.08333] CT
0.8 0 1 RC
10.0 ML
0.667 LW
N
-3 -3 M
-3 3 L
3 3 L
3 -3 L
cp
S
GR
GS
[0.75 0 0 0.75 378.80358 177.41666] CT
0.8 0 1 RC
10.0 ML
0.667 LW
N
-3 -3 M
-3 3 L
3 3 L
3 -3 L
cp
S
GR
GS
[0.75 0 0 0.75 0 0.5] CT
1 0 0 RC
1 LJ
0.667 LW
N
119 250.184 M
129.575 246.5 L
140.15 242.816 L
150.725 239.132 L
161.3 235.448 L
171.875 231.764 L
182.45 228.079 L
193.025 224.395 L
203.6 220.711 L
214.175 217.027 L
224.75 213.343 L
235.325 209.659 L
245.9 205.975 L
256.475 202.291 L
267.05 198.607 L
277.625 194.923 L
288.2 191.239 L
298.775 187.555 L
309.35 183.871 L
319.925 180.186 L
330.5 176.502 L
341.075 172.818 L
351.65 169.134 L
362.225 165.45 L
372.8 161.766 L
383.375 158.082 L
393.95 154.398 L
404.525 150.714 L
415.1 147.03 L
425.675 143.346 L
436.25 139.662 L
446.825 135.978 L
457.4 132.294 L
467.975 128.609 L
478.55 124.925 L
489.125 121.241 L
499.7 117.557 L
510.275 113.873 L
520.85 110.189 L
531.425 106.505 L
542 102.821 L
S
GR
GS
[0.75 0 0 0.75 0 0.5] CT
0.8 1 0 RC
1 LJ
0.667 LW
N
119 263.717 M
129.575 260.033 L
140.15 256.349 L
150.725 252.665 L
161.3 248.98 L
171.875 245.296 L
182.45 241.612 L
193.025 237.928 L
203.6 234.244 L
214.175 230.56 L
224.75 226.876 L
235.325 223.192 L
245.9 219.508 L
256.475 215.824 L
267.05 212.14 L
277.625 208.456 L
288.2 204.772 L
298.775 201.087 L
309.35 197.403 L
319.925 193.719 L
330.5 190.035 L
341.075 186.351 L
351.65 182.667 L
362.225 178.983 L
372.8 175.299 L
383.375 171.615 L
393.95 167.931 L
404.525 164.247 L
415.1 160.563 L
425.675 156.879 L
436.25 153.194 L
446.825 149.51 L
457.4 145.826 L
467.975 142.142 L
478.55 138.458 L
489.125 134.774 L
499.7 131.09 L
510.275 127.406 L
520.85 123.722 L
531.425 120.038 L
542 116.354 L
S
GR
GS
[0.75 0 0 0.75 0 0.5] CT
0 1 0.4 RC
1 LJ
0.667 LW
N
119 254.58 M
129.575 250.896 L
140.15 247.212 L
150.725 243.528 L
161.3 239.844 L
171.875 236.16 L
182.45 232.476 L
193.025 228.792 L
203.6 225.108 L
214.175 221.424 L
224.75 217.74 L
235.325 214.055 L
245.9 210.371 L
256.475 206.687 L
267.05 203.003 L
277.625 199.319 L
288.2 195.635 L
298.775 191.951 L
309.35 188.267 L
319.925 184.583 L
330.5 180.899 L
341.075 177.215 L
351.65 173.531 L
362.225 169.847 L
372.8 166.163 L
383.375 162.478 L
393.95 158.794 L
404.525 155.11 L
415.1 151.426 L
425.675 147.742 L
436.25 144.058 L
446.825 140.374 L
457.4 136.69 L
467.975 133.006 L
478.55 129.322 L
489.125 125.638 L
499.7 121.954 L
510.275 118.27 L
520.85 114.585 L
531.425 110.901 L
542 107.217 L
S
GR
GS
[0.75 0 0 0.75 0 0.5] CT
0 0.4 1 RC
1 LJ
0.667 LW
N
119 287.888 M
129.575 284.203 L
140.15 280.519 L
150.725 276.835 L
161.3 273.151 L
171.875 269.467 L
182.45 265.783 L
193.025 262.099 L
203.6 258.415 L
214.175 254.731 L
224.75 251.047 L
235.325 247.363 L
245.9 243.679 L
256.475 239.995 L
267.05 236.31 L
277.625 232.626 L
288.2 228.942 L
298.775 225.258 L
309.35 221.574 L
319.925 217.89 L
330.5 214.206 L
341.075 210.522 L
351.65 206.838 L
362.225 203.154 L
372.8 199.47 L
383.375 195.786 L
393.95 192.102 L
404.525 188.417 L
415.1 184.733 L
425.675 181.049 L
436.25 177.365 L
446.825 173.681 L
457.4 169.997 L
467.975 166.313 L
478.55 162.629 L
489.125 158.945 L
499.7 155.261 L
510.275 151.577 L
520.85 147.893 L
531.425 144.209 L
542 140.524 L
S
GR
GS
[0.75 0 0 0.75 0 0.5] CT
0.8 0 1 RC
1 LJ
0.667 LW
N
119 332.435 M
129.575 328.751 L
140.15 325.067 L
150.725 321.383 L
161.3 317.699 L
171.875 314.015 L
182.45 310.331 L
193.025 306.647 L
203.6 302.963 L
214.175 299.279 L
224.75 295.595 L
235.325 291.91 L
245.9 288.226 L
256.475 284.542 L
267.05 280.858 L
277.625 277.174 L
288.2 273.49 L
298.775 269.806 L
309.35 266.122 L
319.925 262.438 L
330.5 258.754 L
341.075 255.07 L
351.65 251.386 L
362.225 247.702 L
372.8 244.017 L
383.375 240.333 L
393.95 236.649 L
404.525 232.965 L
415.1 229.281 L
425.675 225.597 L
436.25 221.913 L
446.825 218.229 L
457.4 214.545 L
467.975 210.861 L
478.55 207.177 L
489.125 203.493 L
499.7 199.809 L
510.275 196.124 L
520.85 192.44 L
531.425 188.756 L
542 185.072 L
S
GR
GS
[0.75 0 0 0.75 0 0.5] CT
1 GC
N
483 344 M
483 258 L
531 258 L
531 344 L
cp
f
GR
GS
[0.75 0 0 0.75 390 201.5] CT
/Helvetica 12 F
GS
[1 0 0 1 0 0] CT
0 5 moveto 
1 -1 scale
(1) t 
GR
GR
GS
[0.75 0 0 0.75 376.5 201.5] CT
1 0 0 RC
10.0 ML
0.667 LW
N
3.5 -0.5 M
3.5 -2.709 1.709 -4.5 -0.5 -4.5 C
-2.709 -4.5 -4.5 -2.709 -4.5 -0.5 C
-4.5 1.709 -2.709 3.5 -0.5 3.5 C
1.709 3.5 3.5 1.709 3.5 -0.5 C
S
GR
GS
[0.75 0 0 0.75 390 213.875] CT
/Helvetica 12 F
GS
[1 0 0 1 0 0] CT
0 5 moveto 
1 -1 scale
(2) t 
GR
GR
GS
[0.75 0 0 0.75 376.5 213.875] CT
0.8 1 0 RC
10.0 ML
0.667 LW
N
-2.828 -2.828 M
2.828 2.828 L
-2.828 2.828 M
2.828 -2.828 L
S
GR
GS
[0.75 0 0 0.75 390 226.25] CT
/Helvetica 12 F
GS
[1 0 0 1 0 0] CT
0 5 moveto 
1 -1 scale
(3) t 
GR
GR
GS
[0.75 0 0 0.75 376.5 226.25] CT
0 1 0.4 RC
10.0 ML
0.667 LW
N
0 -4 M
0 4 L
-4 0 M
4 0 L
S
GR
GS
[0.75 0 0 0.75 390 238.625] CT
/Helvetica 12 F
GS
[1 0 0 1 0 0] CT
0 5 moveto 
1 -1 scale
(4) t 
GR
GR
GS
[0.75 0 0 0.75 376.5 238.625] CT
0 0.4 1 RC
10.0 ML
0.667 LW
N
0 -4 M
0 4 L
-4 0 M
4 0 L
-2.828 -2.828 M
2.828 2.828 L
-2.828 2.828 M
2.828 -2.828 L
S
GR
GS
[0.75 0 0 0.75 390 251] CT
/Helvetica 12 F
GS
[1 0 0 1 0 0] CT
0 5 moveto 
1 -1 scale
(5) t 
GR
GR
GS
[0.75 0 0 0.75 376.5 251] CT
0.8 0 1 RC
10.0 ML
0.667 LW
N
-3 -3 M
-3 3 L
3 3 L
3 -3 L
cp
S
GR
GS
[0.75 0 0 0.75 0 0.5] CT
0.149 GC
10.0 ML
0.667 LW
N
483 344 M
483 258 L
531 258 L
531 344 L
cp
S
GR
GS
[0.75 0 0 0.75 211.5 284] CT
N
0 0 M
0 21 L
84 21 L
84 0 L
cp
clip
1 GC
N
0 0 84 21 re
f
GR
GS
[0.75 0 0 0.75 211.5 284] CT
/Helvetica 10.667 F
GS
N
2 -1 M
82 -1 L
82 21 L
2 21 L
2 -1 L
cp
clip
[1 0 0 1 0 0] CT
22 15 moveto 
1 -1 scale
(0.63213) t 
GR
GR
GS
[0.75 0 0 0.75 211.875 284.375] CT
N
-0.5 -0.5 M
-0.5 20.5 L
83.5 20.5 L
83.5 -0.5 L
cp
clip
0.502 GC
2 setlinecap
2 LJ
N
0 0 M
83 0 L
S
GR
GS
[0.75 0 0 0.75 211.875 284.375] CT
N
-0.5 -0.5 M
-0.5 20.5 L
83.5 20.5 L
83.5 -0.5 L
cp
clip
0.502 GC
2 setlinecap
2 LJ
N
0 1 M
0 19 L
S
GR
GS
[0.75 0 0 0.75 211.875 284.375] CT
N
-0.5 -0.5 M
-0.5 20.5 L
83.5 20.5 L
83.5 -0.5 L
cp
clip
0.251 GC
2 setlinecap
2 LJ
N
1 1 M
81 1 L
S
GR
GS
[0.75 0 0 0.75 211.875 284.375] CT
N
-0.5 -0.5 M
-0.5 20.5 L
83.5 20.5 L
83.5 -0.5 L
cp
clip
0.251 GC
2 setlinecap
2 LJ
N
1 2 M
1 18 L
S
GR
GS
[0.75 0 0 0.75 211.875 284.375] CT
N
-0.5 -0.5 M
-0.5 20.5 L
83.5 20.5 L
83.5 -0.5 L
cp
clip
1 GC
2 setlinecap
2 LJ
N
83 0 M
83 20 L
S
GR
GS
[0.75 0 0 0.75 211.875 284.375] CT
N
-0.5 -0.5 M
-0.5 20.5 L
83.5 20.5 L
83.5 -0.5 L
cp
clip
1 GC
2 setlinecap
2 LJ
N
0 20 M
83 20 L
S
GR
GS
[0.75 0 0 0.75 211.875 284.375] CT
N
-0.5 -0.5 M
-0.5 20.5 L
83.5 20.5 L
83.5 -0.5 L
cp
clip
0.831 0.816 0.784 RC
2 setlinecap
2 LJ
N
82 1 M
82 18 L
S
GR
GS
[0.75 0 0 0.75 211.875 284.375] CT
N
-0.5 -0.5 M
-0.5 20.5 L
83.5 20.5 L
83.5 -0.5 L
cp
clip
0.831 0.816 0.784 RC
2 setlinecap
2 LJ
N
1 19 M
82 19 L
S
GR
GS
[0.75 0 0 0.75 3.75 100.25] CT
0.94 GC
N
0 0 73 17 re
f
GR
GS
[0.75 0 0 0.75 3.75 100.25] CT
/Helvetica 10.667 F
GS
N
0 0 M
73 0 L
73 17 L
0 17 L
0 0 L
cp
clip
[1 0 0 1 0 0] CT
17 11 moveto 
1 -1 scale
(lifespan) t 
GR
GR
GS
[0.75 0 0 0.75 3.75 119.75] CT
0.94 GC
N
0 0 73 17 re
f
GR
GS
[0.75 0 0 0.75 3.75 119.75] CT
/Helvetica 10.667 F
GS
N
0 0 M
73 0 L
73 17 L
0 17 L
0 0 L
cp
clip
[1 0 0 1 0 0] CT
36 11 moveto 
1 -1 scale
() t 
GR
GR
GS
[0.75 0 0 0.75 3.75 164.75] CT
0.94 GC
N
0 0 73 17 re
f
GR
GS
[0.75 0 0 0.75 3.75 164.75] CT
/Helvetica 10.667 F
GS
N
0 0 M
73 0 L
73 17 L
0 17 L
0 0 L
cp
clip
[1 0 0 1 0 0] CT
36 11 moveto 
1 -1 scale
() t 
GR
GR
GS
[0.75 0 0 0.75 211.5 306.5] CT
N
0 0 M
0 21 L
84 21 L
84 0 L
cp
clip
0.94 GC
N
0 0 84 21 re
f
GR
GS
[0.75 0 0 0.75 211.5 306.5] CT
/Helvetica 10.667 F
GS
N
0 -1 M
84 -1 L
84 21 L
0 21 L
0 -1 L
cp
clip
[1 0 0 1 0 0] CT
26 11 moveto 
1 -1 scale
(thorax) t 
GR
GR
GS
[0.75 0 0 0.75 296.25 306.5] CT
N
0 0 M
0 21 L
84 21 L
84 0 L
cp
clip
0.94 GC
N
0 0 84 21 re
f
GR
GS
[0.75 0 0 0.75 296.25 306.5] CT
/Helvetica 10.667 F
GS
N
0 -1 M
84 -1 L
84 21 L
0 21 L
0 -1 L
cp
clip
[1 0 0 1 0 0] CT
25 11 moveto 
1 -1 scale
(groups) t 
GR
GR
GS
[0.75 0 0 0.75 105.75 306.5] CT
N
0 0 M
0 21 L
113 21 L
113 0 L
cp
clip
0.94 GC
N
0 0 113 21 re
f
GR
GS
[0.75 0 0 0.75 105.75 306.5] CT
/Helvetica 10.667 F
GS
N
0 -1 M
113 -1 L
113 21 L
0 21 L
0 -1 L
cp
clip
[1 0 0 1 0 0] CT
42 11 moveto 
1 -1 scale
(Model) t 
GR
GR
GS
[0.75 0 0 0.75 3.75 264.5] CT
N
0 0 M
0 21 L
96 21 L
96 0 L
cp
clip
0.94 GC
N
0 0 96 21 re
f
GR
GS
[0.75 0 0 0.75 3.75 264.5] CT
/Helvetica 10.667 F
GS
N
0 -1 M
96 -1 L
96 21 L
0 21 L
0 -1 L
cp
clip
[1 0 0 1 0 0] CT
28 14 moveto 
1 -1 scale
(Export...) t 
GR
GR
GS
[0.75 0 0 0.75 4.125 264.875] CT
N
-0.5 -0.5 M
-0.5 20.5 L
95.5 20.5 L
95.5 -0.5 L
cp
clip
1 GC
2 setlinecap
2 LJ
N
0 0 M
0 20 L
S
GR
GS
[0.75 0 0 0.75 4.125 264.875] CT
N
-0.5 -0.5 M
-0.5 20.5 L
95.5 20.5 L
95.5 -0.5 L
cp
clip
1 GC
2 setlinecap
2 LJ
N
1 0 M
94 0 L
S
GR
GS
[0.75 0 0 0.75 4.125 264.875] CT
N
-0.5 -0.5 M
-0.5 20.5 L
95.5 20.5 L
95.5 -0.5 L
cp
clip
0.831 0.816 0.784 RC
2 setlinecap
2 LJ
N
1 1 M
1 18 L
S
GR
GS
[0.75 0 0 0.75 4.125 264.875] CT
N
-0.5 -0.5 M
-0.5 20.5 L
95.5 20.5 L
95.5 -0.5 L
cp
clip
0.831 0.816 0.784 RC
2 setlinecap
2 LJ
N
2 1 M
93 1 L
S
GR
GS
[0.75 0 0 0.75 4.125 264.875] CT
N
-0.5 -0.5 M
-0.5 20.5 L
95.5 20.5 L
95.5 -0.5 L
cp
clip
0.502 GC
2 setlinecap
2 LJ
N
1 19 M
94 19 L
S
GR
GS
[0.75 0 0 0.75 4.125 264.875] CT
N
-0.5 -0.5 M
-0.5 20.5 L
95.5 20.5 L
95.5 -0.5 L
cp
clip
0.502 GC
2 setlinecap
2 LJ
N
94 1 M
94 18 L
S
GR
GS
[0.75 0 0 0.75 4.125 264.875] CT
N
-0.5 -0.5 M
-0.5 20.5 L
95.5 20.5 L
95.5 -0.5 L
cp
clip
0.251 GC
2 setlinecap
2 LJ
N
0 20 M
95 20 L
S
GR
GS
[0.75 0 0 0.75 4.125 264.875] CT
N
-0.5 -0.5 M
-0.5 20.5 L
95.5 20.5 L
95.5 -0.5 L
cp
clip
0.251 GC
2 setlinecap
2 LJ
N
95 20 M
95 0 L
S
GR
GS
[0.75 0 0 0.75 296.25 284] CT
N
0 0 M
0 22 L
84 22 L
84 0 L
cp
clip
1 GC
N
0 0 84 22 re
f
GR
GS
[0.75 0 0 0.75 296.25 284] CT
N
0 0 M
0 22 L
84 22 L
84 0 L
cp
clip
1 GC
N
-1 2 70 18 re
f
GR
GS
[0.75 0 0 0.75 295.5 285.5] CT
N
1 0 M
1 18 L
70 18 L
70 0 L
cp
clip
1 GC
N
0 0 70 18 re
f
GR
GS
[0.75 0 0 0.75 295.5 285.5] CT
/Helvetica 10.667 F
GS
N
1 -1 M
70 -1 L
70 18 L
1 18 L
1 -1 L
cp
clip
[1 0 0 1 0 0] CT
4 13 moveto 
1 -1 scale
(All Groups) t 
GR
GR
GS
[0.75 0 0 0.75 296.625 284.375] CT
N
-0.5 -0.5 M
-0.5 21.5 L
83.5 21.5 L
83.5 -0.5 L
cp
clip
0.502 GC
2 setlinecap
2 LJ
N
0 0 M
83 0 L
S
GR
GS
[0.75 0 0 0.75 296.625 284.375] CT
N
-0.5 -0.5 M
-0.5 21.5 L
83.5 21.5 L
83.5 -0.5 L
cp
clip
0.502 GC
2 setlinecap
2 LJ
N
0 1 M
0 20 L
S
GR
GS
[0.75 0 0 0.75 296.625 284.375] CT
N
-0.5 -0.5 M
-0.5 21.5 L
83.5 21.5 L
83.5 -0.5 L
cp
clip
0.251 GC
2 setlinecap
2 LJ
N
1 1 M
81 1 L
S
GR
GS
[0.75 0 0 0.75 296.625 284.375] CT
N
-0.5 -0.5 M
-0.5 21.5 L
83.5 21.5 L
83.5 -0.5 L
cp
clip
0.251 GC
2 setlinecap
2 LJ
N
1 2 M
1 19 L
S
GR
GS
[0.75 0 0 0.75 296.625 284.375] CT
N
-0.5 -0.5 M
-0.5 21.5 L
83.5 21.5 L
83.5 -0.5 L
cp
clip
1 GC
2 setlinecap
2 LJ
N
83 0 M
83 21 L
S
GR
GS
[0.75 0 0 0.75 296.625 284.375] CT
N
-0.5 -0.5 M
-0.5 21.5 L
83.5 21.5 L
83.5 -0.5 L
cp
clip
1 GC
2 setlinecap
2 LJ
N
0 21 M
83 21 L
S
GR
GS
[0.75 0 0 0.75 296.625 284.375] CT
N
-0.5 -0.5 M
-0.5 21.5 L
83.5 21.5 L
83.5 -0.5 L
cp
clip
0.831 0.816 0.784 RC
2 setlinecap
2 LJ
N
82 1 M
82 19 L
S
GR
GS
[0.75 0 0 0.75 296.625 284.375] CT
N
-0.5 -0.5 M
-0.5 21.5 L
83.5 21.5 L
83.5 -0.5 L
cp
clip
0.831 0.816 0.784 RC
2 setlinecap
2 LJ
N
1 20 M
82 20 L
S
GR
GS
[0.75 0 0 0.75 346.5 285.5] CT
0.831 0.816 0.784 RC
N
1 1 13 16 re
f
GR
GS
[0.75 0 0 0.75 346.875 285.875] CT
N
-0.5 -0.5 M
-0.5 17.5 L
14.5 17.5 L
14.5 -0.5 L
cp
clip
0.831 0.816 0.784 RC
2 setlinecap
2 LJ
N
0 0 M
0 17 L
S
GR
GS
[0.75 0 0 0.75 346.875 285.875] CT
N
-0.5 -0.5 M
-0.5 17.5 L
14.5 17.5 L
14.5 -0.5 L
cp
clip
0.831 0.816 0.784 RC
2 setlinecap
2 LJ
N
1 0 M
13 0 L
S
GR
GS
[0.75 0 0 0.75 346.875 285.875] CT
N
-0.5 -0.5 M
-0.5 17.5 L
14.5 17.5 L
14.5 -0.5 L
cp
clip
1 GC
2 setlinecap
2 LJ
N
1 1 M
1 15 L
S
GR
GS
[0.75 0 0 0.75 346.875 285.875] CT
N
-0.5 -0.5 M
-0.5 17.5 L
14.5 17.5 L
14.5 -0.5 L
cp
clip
1 GC
2 setlinecap
2 LJ
N
2 1 M
12 1 L
S
GR
GS
[0.75 0 0 0.75 346.875 285.875] CT
N
-0.5 -0.5 M
-0.5 17.5 L
14.5 17.5 L
14.5 -0.5 L
cp
clip
0.502 GC
2 setlinecap
2 LJ
N
1 16 M
13 16 L
S
GR
GS
[0.75 0 0 0.75 346.875 285.875] CT
N
-0.5 -0.5 M
-0.5 17.5 L
14.5 17.5 L
14.5 -0.5 L
cp
clip
0.502 GC
2 setlinecap
2 LJ
N
13 1 M
13 15 L
S
GR
GS
[0.75 0 0 0.75 346.875 285.875] CT
N
-0.5 -0.5 M
-0.5 17.5 L
14.5 17.5 L
14.5 -0.5 L
cp
clip
0.251 GC
2 setlinecap
2 LJ
N
0 17 M
14 17 L
S
GR
GS
[0.75 0 0 0.75 346.875 285.875] CT
N
-0.5 -0.5 M
-0.5 17.5 L
14.5 17.5 L
14.5 -0.5 L
cp
clip
0.251 GC
2 setlinecap
2 LJ
N
14 17 M
14 0 L
S
GR
GS
[0.75 0 0 0.75 351.375 291.125] CT
N
-6.5 -7.5 M
-6.5 10.5 L
8.5 10.5 L
8.5 -7.5 L
cp
clip
0.251 GC
2 setlinecap
2 LJ
N
-2 0 M
2 0 L
S
GR
GS
[0.75 0 0 0.75 351.375 291.125] CT
N
-6.5 -7.5 M
-6.5 10.5 L
8.5 10.5 L
8.5 -7.5 L
cp
clip
0.251 GC
2 setlinecap
2 LJ
N
-1 1 M
1 1 L
S
GR
GS
[0.75 0 0 0.75 351.375 291.125] CT
N
-6.5 -7.5 M
-6.5 10.5 L
8.5 10.5 L
8.5 -7.5 L
cp
clip
0.251 GC
2 setlinecap
2 LJ
N
0 2 M
0 2 L
S
GR
GS
[0.75 0 0 0.75 105.75 284] CT
N
0 0 M
0 22 L
113 22 L
113 0 L
cp
clip
1 GC
N
0 0 113 22 re
f
GR
GS
[0.75 0 0 0.75 105.75 284] CT
N
0 0 M
0 22 L
113 22 L
113 0 L
cp
clip
1 GC
N
-1 2 99 18 re
f
GR
GS
[0.75 0 0 0.75 105 285.5] CT
N
1 0 M
1 18 L
99 18 L
99 0 L
cp
clip
1 GC
N
0 0 99 18 re
f
GR
GS
[0.75 0 0 0.75 105 285.5] CT
/Helvetica 10.667 F
GS
N
1 -1 M
99 -1 L
99 18 L
1 18 L
1 -1 L
cp
clip
[1 0 0 1 0 0] CT
4 13 moveto 
1 -1 scale
(Parallel Lines) t 
GR
GR
GS
[0.75 0 0 0.75 106.125 284.375] CT
N
-0.5 -0.5 M
-0.5 21.5 L
112.5 21.5 L
112.5 -0.5 L
cp
clip
0.502 GC
2 setlinecap
2 LJ
N
0 0 M
112 0 L
S
GR
GS
[0.75 0 0 0.75 106.125 284.375] CT
N
-0.5 -0.5 M
-0.5 21.5 L
112.5 21.5 L
112.5 -0.5 L
cp
clip
0.502 GC
2 setlinecap
2 LJ
N
0 1 M
0 20 L
S
GR
GS
[0.75 0 0 0.75 106.125 284.375] CT
N
-0.5 -0.5 M
-0.5 21.5 L
112.5 21.5 L
112.5 -0.5 L
cp
clip
0.251 GC
2 setlinecap
2 LJ
N
1 1 M
110 1 L
S
GR
GS
[0.75 0 0 0.75 106.125 284.375] CT
N
-0.5 -0.5 M
-0.5 21.5 L
112.5 21.5 L
112.5 -0.5 L
cp
clip
0.251 GC
2 setlinecap
2 LJ
N
1 2 M
1 19 L
S
GR
GS
[0.75 0 0 0.75 106.125 284.375] CT
N
-0.5 -0.5 M
-0.5 21.5 L
112.5 21.5 L
112.5 -0.5 L
cp
clip
1 GC
2 setlinecap
2 LJ
N
112 0 M
112 21 L
S
GR
GS
[0.75 0 0 0.75 106.125 284.375] CT
N
-0.5 -0.5 M
-0.5 21.5 L
112.5 21.5 L
112.5 -0.5 L
cp
clip
1 GC
2 setlinecap
2 LJ
N
0 21 M
112 21 L
S
GR
GS
[0.75 0 0 0.75 106.125 284.375] CT
N
-0.5 -0.5 M
-0.5 21.5 L
112.5 21.5 L
112.5 -0.5 L
cp
clip
0.831 0.816 0.784 RC
2 setlinecap
2 LJ
N
111 1 M
111 19 L
S
GR
GS
[0.75 0 0 0.75 106.125 284.375] CT
N
-0.5 -0.5 M
-0.5 21.5 L
112.5 21.5 L
112.5 -0.5 L
cp
clip
0.831 0.816 0.784 RC
2 setlinecap
2 LJ
N
1 20 M
111 20 L
S
GR
GS
[0.75 0 0 0.75 177.75 285.5] CT
0.831 0.816 0.784 RC
N
1 1 13 16 re
f
GR
GS
[0.75 0 0 0.75 178.125 285.875] CT
N
-0.5 -0.5 M
-0.5 17.5 L
14.5 17.5 L
14.5 -0.5 L
cp
clip
0.831 0.816 0.784 RC
2 setlinecap
2 LJ
N
0 0 M
0 17 L
S
GR
GS
[0.75 0 0 0.75 178.125 285.875] CT
N
-0.5 -0.5 M
-0.5 17.5 L
14.5 17.5 L
14.5 -0.5 L
cp
clip
0.831 0.816 0.784 RC
2 setlinecap
2 LJ
N
1 0 M
13 0 L
S
GR
GS
[0.75 0 0 0.75 178.125 285.875] CT
N
-0.5 -0.5 M
-0.5 17.5 L
14.5 17.5 L
14.5 -0.5 L
cp
clip
1 GC
2 setlinecap
2 LJ
N
1 1 M
1 15 L
S
GR
GS
[0.75 0 0 0.75 178.125 285.875] CT
N
-0.5 -0.5 M
-0.5 17.5 L
14.5 17.5 L
14.5 -0.5 L
cp
clip
1 GC
2 setlinecap
2 LJ
N
2 1 M
12 1 L
S
GR
GS
[0.75 0 0 0.75 178.125 285.875] CT
N
-0.5 -0.5 M
-0.5 17.5 L
14.5 17.5 L
14.5 -0.5 L
cp
clip
0.502 GC
2 setlinecap
2 LJ
N
1 16 M
13 16 L
S
GR
GS
[0.75 0 0 0.75 178.125 285.875] CT
N
-0.5 -0.5 M
-0.5 17.5 L
14.5 17.5 L
14.5 -0.5 L
cp
clip
0.502 GC
2 setlinecap
2 LJ
N
13 1 M
13 15 L
S
GR
GS
[0.75 0 0 0.75 178.125 285.875] CT
N
-0.5 -0.5 M
-0.5 17.5 L
14.5 17.5 L
14.5 -0.5 L
cp
clip
0.251 GC
2 setlinecap
2 LJ
N
0 17 M
14 17 L
S
GR
GS
[0.75 0 0 0.75 178.125 285.875] CT
N
-0.5 -0.5 M
-0.5 17.5 L
14.5 17.5 L
14.5 -0.5 L
cp
clip
0.251 GC
2 setlinecap
2 LJ
N
14 17 M
14 0 L
S
GR
GS
[0.75 0 0 0.75 182.625 291.125] CT
N
-6.5 -7.5 M
-6.5 10.5 L
8.5 10.5 L
8.5 -7.5 L
cp
clip
0.251 GC
2 setlinecap
2 LJ
N
-2 0 M
2 0 L
S
GR
GS
[0.75 0 0 0.75 182.625 291.125] CT
N
-6.5 -7.5 M
-6.5 10.5 L
8.5 10.5 L
8.5 -7.5 L
cp
clip
0.251 GC
2 setlinecap
2 LJ
N
-1 1 M
1 1 L
S
GR
GS
[0.75 0 0 0.75 182.625 291.125] CT
N
-6.5 -7.5 M
-6.5 10.5 L
8.5 10.5 L
8.5 -7.5 L
cp
clip
0.251 GC
2 setlinecap
2 LJ
N
0 2 M
0 2 L
S
GR
GS
[0.75 0 0 0.75 3.75 284] CT
N
0 0 M
0 21 L
96 21 L
96 0 L
cp
clip
0.94 GC
N
0 0 96 21 re
f
GR
GS
[0.75 0 0 0.75 3.75 284] CT
/Helvetica 10.667 F
GS
N
0 -1 M
96 -1 L
96 21 L
0 21 L
0 -1 L
cp
clip
[1 0 0 1 0 0] CT
35 14 moveto 
1 -1 scale
(Close) t 
GR
GR
GS
[0.75 0 0 0.75 4.125 284.375] CT
N
-0.5 -0.5 M
-0.5 20.5 L
95.5 20.5 L
95.5 -0.5 L
cp
clip
1 GC
2 setlinecap
2 LJ
N
0 0 M
0 20 L
S
GR
GS
[0.75 0 0 0.75 4.125 284.375] CT
N
-0.5 -0.5 M
-0.5 20.5 L
95.5 20.5 L
95.5 -0.5 L
cp
clip
1 GC
2 setlinecap
2 LJ
N
1 0 M
94 0 L
S
GR
GS
[0.75 0 0 0.75 4.125 284.375] CT
N
-0.5 -0.5 M
-0.5 20.5 L
95.5 20.5 L
95.5 -0.5 L
cp
clip
0.831 0.816 0.784 RC
2 setlinecap
2 LJ
N
1 1 M
1 18 L
S
GR
GS
[0.75 0 0 0.75 4.125 284.375] CT
N
-0.5 -0.5 M
-0.5 20.5 L
95.5 20.5 L
95.5 -0.5 L
cp
clip
0.831 0.816 0.784 RC
2 setlinecap
2 LJ
N
2 1 M
93 1 L
S
GR
GS
[0.75 0 0 0.75 4.125 284.375] CT
N
-0.5 -0.5 M
-0.5 20.5 L
95.5 20.5 L
95.5 -0.5 L
cp
clip
0.502 GC
2 setlinecap
2 LJ
N
1 19 M
94 19 L
S
GR
GS
[0.75 0 0 0.75 4.125 284.375] CT
N
-0.5 -0.5 M
-0.5 20.5 L
95.5 20.5 L
95.5 -0.5 L
cp
clip
0.502 GC
2 setlinecap
2 LJ
N
94 1 M
94 18 L
S
GR
GS
[0.75 0 0 0.75 4.125 284.375] CT
N
-0.5 -0.5 M
-0.5 20.5 L
95.5 20.5 L
95.5 -0.5 L
cp
clip
0.251 GC
2 setlinecap
2 LJ
N
0 20 M
95 20 L
S
GR
GS
[0.75 0 0 0.75 4.125 284.375] CT
N
-0.5 -0.5 M
-0.5 20.5 L
95.5 20.5 L
95.5 -0.5 L
cp
clip
0.251 GC
2 setlinecap
2 LJ
N
95 20 M
95 0 L
S
GR
GS
[0.75 0 0 0.75 3.75 303.5] CT
N
0 0 M
0 21 L
96 21 L
96 0 L
cp
clip
0.94 GC
N
0 0 96 21 re
f
GR
GS
[0.75 0 0 0.75 3.75 303.5] CT
/Helvetica 10.667 F
GS
N
0 -1 M
96 -1 L
96 21 L
0 21 L
0 -1 L
cp
clip
[1 0 0 1 0 0] CT
27 14 moveto 
1 -1 scale
(Close All) t 
GR
GR
GS
[0.75 0 0 0.75 4.125 303.875] CT
N
-0.5 -0.5 M
-0.5 20.5 L
95.5 20.5 L
95.5 -0.5 L
cp
clip
1 GC
2 setlinecap
2 LJ
N
0 0 M
0 20 L
S
GR
GS
[0.75 0 0 0.75 4.125 303.875] CT
N
-0.5 -0.5 M
-0.5 20.5 L
95.5 20.5 L
95.5 -0.5 L
cp
clip
1 GC
2 setlinecap
2 LJ
N
1 0 M
94 0 L
S
GR
GS
[0.75 0 0 0.75 4.125 303.875] CT
N
-0.5 -0.5 M
-0.5 20.5 L
95.5 20.5 L
95.5 -0.5 L
cp
clip
0.831 0.816 0.784 RC
2 setlinecap
2 LJ
N
1 1 M
1 18 L
S
GR
GS
[0.75 0 0 0.75 4.125 303.875] CT
N
-0.5 -0.5 M
-0.5 20.5 L
95.5 20.5 L
95.5 -0.5 L
cp
clip
0.831 0.816 0.784 RC
2 setlinecap
2 LJ
N
2 1 M
93 1 L
S
GR
GS
[0.75 0 0 0.75 4.125 303.875] CT
N
-0.5 -0.5 M
-0.5 20.5 L
95.5 20.5 L
95.5 -0.5 L
cp
clip
0.502 GC
2 setlinecap
2 LJ
N
1 19 M
94 19 L
S
GR
GS
[0.75 0 0 0.75 4.125 303.875] CT
N
-0.5 -0.5 M
-0.5 20.5 L
95.5 20.5 L
95.5 -0.5 L
cp
clip
0.502 GC
2 setlinecap
2 LJ
N
94 1 M
94 18 L
S
GR
GS
[0.75 0 0 0.75 4.125 303.875] CT
N
-0.5 -0.5 M
-0.5 20.5 L
95.5 20.5 L
95.5 -0.5 L
cp
clip
0.251 GC
2 setlinecap
2 LJ
N
0 20 M
95 20 L
S
GR
GS
[0.75 0 0 0.75 4.125 303.875] CT
N
-0.5 -0.5 M
-0.5 20.5 L
95.5 20.5 L
95.5 -0.5 L
cp
clip
0.251 GC
2 setlinecap
2 LJ
N
95 20 M
95 0 L
S
GR
%%Trailer
%%Pages: 1
%%EOF
